{
    "company": {
        "name": "Habbit",
        "phone": {
            "number": "+9(193)128-07-777",
            "link": "tel:+919312807777"
        },
        "email": "hello@habbithealth.com",
        "license": "FSSAI License No. 10020011008014",
        "copyright": "Habbit Health and Nutrition Private Limited © 2021",
        "social": [
            {
                "icon": "instagram",
                "title": "Instagram"
            },
            {
                "icon": "facebook",
                "title": "Facebook"
            },
            {
                "icon": "linkedin",
                "title": "LinkedIn"
            },
            {
                "icon": "twitter",
                "title": "Twitter"
            }
        ],
        "videoLink": "https://youtu.be/Df6SHIhUOIs"
    },
    "sessionMenu": [
        {
            "name": "Sign in",
            "icon": "account",
            "class": "hidden-md-down",
            "link": "sign-in.html",
            "text": "A"
        },
        {
            "name": "cart",
            "icon": "cart",
            "count": 2,
            "link": "#",
            "element": "aside-menu-trigger",
            "src": "cart"
        }
    ],
    "nav": [
        {
            "name": "Shop",
            "link": "shop-all.html",
            "images": 1,
            "list": [
                {
                    "items": [
                        {
                            "name": "Shop all",
                            "link": "shop-all.html",
                            "images": 1
                        }
                    ]
                },
                {
                    "items": [
                        {
                            "name": "Essentials",
                            "link": "shop-category.html",
                            "images": 2,
                            "description": "The most essential foods are, of&nbsp;course, proteins. In our variety of&nbsp;products you will find what you need",
                            "list": [
                                "Super shake",
                                "Habbit Apex",
                                "Habbit Active",
                                "Habbit Green"
                            ]
                        },
                        {
                            "name": "Treats",
                            "link": "shop-category.html",
                            "images": 2,
                            "description": "Healthy, low-calorie treats. So&nbsp;delicious that you can't tear yourself away from them",
                            "list": [
                                "Wise Cream"
                            ]
                        },
                        {
                            "name": "Staples",
                            "link": "shop-category.html",
                            "images": 2,
                            "description": "We have a lot of interesting things that you might like. Look ...",
                            "list": [
                                "Habbit Nude",
                                "Accessories"
                            ]
                        },
                        {
                            "name": "Combo Boxes",
                            "link": "shop-category.html",
                            "images": 2,
                            "description": "Sets with your favorite products from Habbit."
                        }
                    ]
                }
            ]
        },
        {
            "name": "Refer",
            "link": "#"
        },
        {
            "name": "Habbit",
            "link": "#",
            "images": 2,
            "list": [
                {
                    "items": [
                        {
                            "name": "About us",
                            "link": "#"
                        },
                        {
                            "name": "We believe",
                            "link": "#"
                        },
                        {
                            "name": "Patner with Us",
                            "link": "#"
                        },
                        {
                            "name": "Blog",
                            "link": "#"
                        }
                    ]
                }
            ]
        }
    ],
    "footerNav": [
        {
            "title": "Shop",
            "list": [
                {
                    "name": "Shop all",
                    "link": ""
                },
                {
                    "name": "Essentials",
                    "link": ""
                },
                {
                    "name": "Treats",
                    "link": ""
                },
                {
                    "name": "Staples",
                    "link": ""
                },
                {
                    "name": "Combo Boxes",
                    "link": ""
                }
            ]
        },
        {
            "title": "Learn",
            "list": [
                {
                    "name": "Refer",
                    "link": ""
                },
                {
                    "name": "Recipes",
                    "link": ""
                },
                {
                    "name": "We believe",
                    "link": ""
                },
                {
                    "name": "Blog",
                    "link": ""
                },
                {
                    "name": "About us",
                    "link": ""
                },
                {
                    "name": "Habbit lab",
                    "link": ""
                },
                {
                    "name": "FAQ",
                    "link": ""
                }
            ]
        }
    ],
    "footerLinks": [
        {
            "name": "T&C’s",
            "link": ""
        },
        {
            "name": "Privacy Policy",
            "link": ""
        },
        {
            "name": "Returns Policy",
            "link": ""
        },
        {
            "name": "Shipping Policy",
            "link": ""
        }
    ],
    "hero": [
        {
            "title": "The healthiest ice creams ever made",
            "text": "The lowest calorie ice creams in the world. Impossibly creamy, rich and tasty and available in 6 delicious flavours.",
            "image": "1"
        },
        {
            "title": "First order discount",
            "text": "Get 25% off your first Habbit Health order with&nbsp;a&nbsp;promo&nbsp;code <b>HELLO</b> and become a member.",
            "image": "2"
        },
        {
            "title": "The healthiest ice creams ever made",
            "text": "The lowest calorie ice creams in the world. Impossibly creamy, rich and tasty and available in 6 delicious flavours.",
            "image": "1"
        },
        {
            "title": "First order discount",
            "text": "Get 25% off your first Habbit Health order with&nbsp;a&nbsp;promo&nbsp;code <b>HELLO</b> and become a member.",
            "image": "2"
        }
    ],
    "partners": [
        {
            "image": "yourstrory"
        },
        {
            "image": "the-economic-times"
        },
        {
            "image": "bwdisrupt"
        },
        {
            "image": "financial-express"
        },
        {
            "image": "yourstrory"
        },
        {
            "image": "the-economic-times"
        },
        {
            "image": "bwdisrupt"
        },
        {
            "image": "financial-express"
        }
    ],
    "testimonials": [
        {
            "image": 1,
            "quote": "I work as a Fitness Kickboxing Instructor, and I’ve been having Habbit proteins for almost a year now. Apex is easily one of the easiest to digest ‘till date, and I like the simple instruction hacks on how to make the shake better.",
            "author": {
                "name": "Dr. Hemant Singh Beniwal",
                "info": "Psychologist, Triathlete, Elite runner"
            }
        },
        {
            "image": 2,
            "type": "video",
            "quote": "I’ve always hated protein powders because of offensive taste and difficulty in solubility. The Habbit Active protein scores very high on these aspects and surprised me pleasantly!",
            "author": {
                "name": "Tanuja Sodhi",
                "info": "Author, Nutrition Coach, Ex-Naval Officer, Ironman"
            }
        },
        {
            "image": 1,
            "quote": "I work as a Fitness Kickboxing Instructor, and I’ve been having Habbit proteins for almost a year now. Apex is easily one of the easiest to digest ‘till date, and I like the simple instruction hacks on how to make the shake better.",
            "author": {
                "name": "Dr. Hemant Singh Beniwal",
                "info": "Psychologist, Triathlete, Elite runner"
            }
        },
        {
            "image": 2,
            "type": "video",
            "quote": "I’ve always hated protein powders because of offensive taste and difficulty in solubility. The Habbit Active protein scores very high on these aspects and surprised me pleasantly!",
            "author": {
                "name": "Tanuja Sodhi",
                "info": "Author, Nutrition Coach, Ex-Naval Officer, Ironman"
            }
        }
    ],
    "blog": [
        {
            "image": 1,
            "time": "1 hour",
            "category": "Recipes",
            "date": "22.07.2021",
            "title": "Protein Cookies",
            "text": "Soft and chewy homemade Peanut Butter Protein Cookies. Low carb, 112 calories, and 7 grams of protein..."
        },
        {
            "image": 2,
            "category": "News",
            "date": "21.07.2021",
            "title": "New ice cream flavours",
            "text": "We thought for a long time about what flavors our ice cream is missing. And sure enough, we prishda idea..."
        },
        {
            "image": 3,
            "category": "Expert",
            "date": "20.07.2021",
            "title": "Whey protein, what this?",
            "text": "Whey protein is the richest in BCAA amino acids. Ideal for post-workout and..."
        },
        {
            "image": 4,
            "category": "Laboratory",
            "date": "19.07.2021",
            "title": "Grade-A Proteins",
            "text": "Sourced from the best dairy farms across the globe, our whey proteins are made using A2... "
        },
        {
            "image": 1,
            "time": "1 hour",
            "category": "Recipes",
            "date": "22.07.2021",
            "title": "Protein Cookies",
            "text": "Soft and chewy homemade Peanut Butter Protein Cookies. Low carb, 112 calories, and 7 grams of protein..."
        },
        {
            "image": 2,
            "category": "News",
            "date": "21.07.2021",
            "title": "New ice cream flavours",
            "text": "We thought for a long time about what flavors our ice cream is missing. And sure enough, we prishda idea..."
        },
        {
            "image": 3,
            "category": "Expert",
            "date": "20.07.2021",
            "title": "Whey protein, what this?",
            "text": "Whey protein is the richest in BCAA amino acids. Ideal for post-workout and..."
        },
        {
            "image": 4,
            "category": "Laboratory",
            "date": "19.07.2021",
            "title": "Grade-A Proteins",
            "text": "Sourced from the best dairy farms across the globe, our whey proteins are made using A2... "
        }
    ],
    "recipes": [
        {
            "image": 1,
            "time": "1 hour",
            "title": "Protein Cookies",
            "text": "Soft and chewy homemade Peanut Butter Protein Cookies. Low carb, 112 calories, and 7 grams of protein...",
            "products": [
                "HABBIT NUDE"
            ]
        },
        {
            "image": 2,
            "time": "10 min",
            "title": "Coffee Protein Shake",
            "text": "You will absolutely love this coffee protein shake recipe. It’s not your average protein shake because...",
            "products": [
                "HABBIT APEX",
                "wise cream"
            ]
        },
        {
            "image": 3,
            "time": "35 min",
            "title": "Protein pancakes",
            "text": "Protein pancakes! made in a blender with no refined grains, no refined sugar, and loads of healthy proteins...",
            "products": [
                "HABBIT NUDE"
            ]
        },
        {
            "image": 4,
            "time": "35 min",
            "title": "Protein Waffles",
            "text": "Preheat a waffle iron and coat with cooking spray. In a medium bowl, mix together the protein powder... ",
            "products": [
                "HABBIT APEX"
            ]
        }
    ],
    "feed": [
        {
            "image": 1,
            "text": "Follow on Instagram",
            "caption": "@alexted",
            "link": "https://www.instagram.com/p/CN2blw7JtuV/"
        },
        {
            "image": 2,
            "text": "Follow on Instagram",
            "caption": "@tanujasport",
            "link": "https://www.instagram.com/p/CNei1YeJEzd/"
        },
        {
            "image": 3,
            "text": "Follow on Instagram",
            "caption": "@richardda",
            "link": "https://www.instagram.com/p/CNpidDcJrA6/"
        },
        {
            "image": 4,
            "text": "Follow on Instagram",
            "caption": "@nickjam",
            "link": "https://www.instagram.com/p/CNkbH1BJ95X/"
        },
        {
            "image": 1,
            "text": "Follow on Instagram",
            "caption": "@alexted",
            "link": "https://www.instagram.com/p/CN2blw7JtuV/"
        },
        {
            "image": 2,
            "text": "Follow on Instagram",
            "caption": "@tanujasport",
            "link": "https://www.instagram.com/p/CNei1YeJEzd/"
        },
        {
            "image": 3,
            "text": "Follow on Instagram",
            "caption": "@richardda",
            "link": "https://www.instagram.com/p/CNpidDcJrA6/"
        },
        {
            "image": 4,
            "text": "Follow on Instagram",
            "caption": "@nickjam",
            "link": "https://www.instagram.com/p/CNkbH1BJ95X/"
        }
    ],
    "filters": [
        {
            "title": "Sort",
            "id": "sort",
            "type": "default",
            "list": [
                {
                    "name": "By Category",
                    "id": 1,
                    "selected": true
                },
                {
                    "name": "By popularity",
                    "id": 2
                },
                {
                    "name": "Ascending price",
                    "id": 3
                },
                {
                    "name": "Descending price",
                    "id": 4
                }
            ]
        },
        {
            "title": "Flavours",
            "id": "flavours",
            "type": "multiple",
            "class": "hidden-md-down",
            "list": [
                {
                    "name": "All",
                    "id": 0,
                    "selected": true
                },
                {
                    "name": "Blueberry Crumble",
                    "id": 1
                },
                {
                    "name": "Lychee Blush",
                    "id": 2
                },
                {
                    "name": "Matcha Green Tea",
                    "id": 3
                },
                {
                    "name": "Salted Caramel",
                    "id": 4
                },
                {
                    "name": "Vintage Vanilla",
                    "id": 5
                },
                {
                    "name": "Banana Drama",
                    "id": 6
                },
                {
                    "name": "Caffe Latte",
                    "id": 7
                },
                {
                    "name": "Cookie Dough",
                    "id": 8
                },
                {
                    "name": "Mega Mango",
                    "id": 9
                },
                {
                    "name": "Strawberry Feels",
                    "id": 10
                }
            ]
        },
        {
            "title": "Ingredients",
            "id": "ingredients",
            "type": "multiple",
            "class": "hidden-md-down",
            "list": [
                {
                    "name": "All",
                    "id": 0
                },
                {
                    "name": "Protein",
                    "id": 1,
                    "selected": true
                },
                {
                    "name": "Sugar Free",
                    "id": 2,
                    "selected": true
                },
                {
                    "name": "Milk",
                    "id": 3
                },
                {
                    "name": "Grade-A Pea Protein Isolates",
                    "id": 4
                }
            ]
        }
    ],
    "catalog": [
        {
            "id": "treats",
            "products": [
                {
                    "title": "Wise Cream",
                    "description": "The lowest calorie ice creams in the world. Impossibly creamy, rich and tasty.",
                    "list": [
                        {
                            "image": 1,
                            "sticker": true,
                            "pack": [
                                "6 <span class=\"hidden-text\">cups</span> x 125ml",
                                "2 <span class=\"hidden-text\">pints</span> x 500ml"
                            ],
                            "name": "Wise Cream",
                            "info": "Blueberry Crumble",
                            "price": "₹799",
                            "memberPrice": "₹759"
                        },
                        {
                            "image": 2,
                            "sticker": true,
                            "pack": [
                                "6 <span class=\"hidden-text\">cups</span> x 125ml",
                                "2 <span class=\"hidden-text\">pints</span> x 500ml"
                            ],
                            "name": "Wise Cream",
                            "info": "Lychee Blush",
                            "price": "₹799",
                            "memberPrice": "₹759"
                        },
                        {
                            "image": 3,
                            "sticker": true,
                            "pack": [
                                "6 <span class=\"hidden-text\">cups</span> x 125ml",
                                "2 <span class=\"hidden-text\">pints</span> x 500ml"
                            ],
                            "name": "Wise Cream",
                            "info": "Matcha Green Tea",
                            "price": "₹799",
                            "memberPrice": "₹759"
                        },
                        {
                            "image": 4,
                            "pack": [
                                "6 <span class=\"hidden-text\">cups</span> x 125ml",
                                "2 <span class=\"hidden-text\">pints</span> x 500ml"
                            ],
                            "name": "Wise Cream",
                            "info": "Double Chocolate",
                            "price": "₹799",
                            "memberPrice": "₹759"
                        },
                        {
                            "image": 5,
                            "pack": [
                                "6 <span class=\"hidden-text\">cups</span> x 125ml",
                                "2 <span class=\"hidden-text\">pints</span> x 500ml"
                            ],
                            "name": "Wise Cream",
                            "info": "Salted Caramel",
                            "price": "₹799",
                            "memberPrice": "₹759"
                        },
                        {
                            "image": 6,
                            "pack": [
                                "6 <span class=\"hidden-text\">cups</span> x 125ml",
                                "2 <span class=\"hidden-text\">pints</span> x 500ml"
                            ],
                            "name": "Wise Cream",
                            "info": "Vintage Vanilla",
                            "price": "₹799",
                            "memberPrice": "₹759"
                        },
                        {
                            "image": 7,
                            "pack": [
                                "6 <span class=\"hidden-text\">cups</span> x 125ml"
                            ],
                            "name": "Wise Cream",
                            "info": "Variety Pack",
                            "price": "₹799",
                            "memberPrice": "₹759"
                        }
                    ]
                }
            ]
        },
        {
            "id": "essentials",
            "products": [
                {
                    "title": "Super Shake",
                    "description": "The Super Shake is a nutrient dense premix you can add to milk or water to make a tasty smoothie for yourself.",
                    "list": [
                        {
                            "image": 1,
                            "sticker": true,
                            "pack": [
                                "400g"
                            ],
                            "name": "Super Shake",
                            "info": "Double Chocolate",
                            "price": "₹999",
                            "memberPrice": "₹959"
                        },
                        {
                            "image": 2,
                            "pack": [
                                "400g"
                            ],
                            "name": "Super Shake",
                            "info": "Variety Pack",
                            "price": "₹1,899",
                            "memberPrice": "₹1,859"
                        },
                        {
                            "image": 3,
                            "pack": [
                                "400g"
                            ],
                            "name": "Super Shake",
                            "info": "Vintage Vanilla",
                            "price": "₹999",
                            "memberPrice": "₹959"
                        }
                    ]
                },
                {
                    "title": "Habbit Apex",
                    "description": "Grade – A Whey Protein Isolate. Unbelievable Performace. Amazing Flavour.",
                    "id": "Protein",
                    "list": [
                        {
                            "image": 1,
                            "sticker": true,
                            "pack": [
                                "7 days",
                                "14 days"
                            ],
                            "name": "Habbit Apex",
                            "info": "Banana Drama",
                            "price": "₹999",
                            "memberPrice": "₹959"
                        },
                        {
                            "image": 2,
                            "pack": [
                                "7 days",
                                "14 days"
                            ],
                            "name": "Habbit Apex",
                            "info": "Caffe Latte",
                            "price": "₹999",
                            "memberPrice": "₹959"
                        },
                        {
                            "image": 3,
                            "pack": [
                                "7 days",
                                "14 days"
                            ],
                            "name": "Habbit Apex",
                            "info": "Cookie Dough",
                            "price": "₹999",
                            "memberPrice": "₹959"
                        },
                        {
                            "image": 4,
                            "sticker": true,
                            "pack": [
                                "7 days",
                                "14 days"
                            ],
                            "name": "Habbit Apex",
                            "info": "Double Chocolate",
                            "price": "₹999",
                            "memberPrice": "₹959"
                        },
                        {
                            "image": 5,
                            "pack": [
                                "7 days",
                                "14 days"
                            ],
                            "name": "Habbit Apex",
                            "info": "Mega Mango",
                            "price": "₹999",
                            "memberPrice": "₹959"
                        },
                        {
                            "image": 6,
                            "pack": [
                                "7 days",
                                "14 days"
                            ],
                            "name": "Habbit Apex",
                            "info": "Strawberry Feels",
                            "price": "₹999",
                            "memberPrice": "₹959"
                        },
                        {
                            "image": 7,
                            "sticker": true,
                            "pack": [
                                "7 days",
                                "14 days"
                            ],
                            "name": "Habbit Apex",
                            "info": "Vintage Vanilla",
                            "price": "₹999",
                            "memberPrice": "₹959"
                        },
                        {
                            "image": 8,
                            "pack": [
                                "7 days"
                            ],
                            "name": "Habbit Apex",
                            "info": "Variety Pack | 7 days",
                            "price": "₹999",
                            "memberPrice": "₹959"
                        }
                    ]
                },
                {
                    "title": "Habbit Active",
                    "description": "Grade – A Whey Protein Blend.  Creamy and flavourful –  it is essential nutrition to meet your daily protein requirements.",
                    "id": "Protein",
                    "list": [
                        {
                            "image": 1,
                            "pack": [
                                "7 days",
                                "14 days"
                            ],
                            "name": "Habbit Active",
                            "info": "Banana Drama",
                            "price": "₹799",
                            "memberPrice": "₹759"
                        },
                        {
                            "image": 2,
                            "pack": [
                                "7 days",
                                "14 days"
                            ],
                            "name": "Habbit Active",
                            "info": "Caffe Latte",
                            "price": "₹799",
                            "memberPrice": "₹759"
                        },
                        {
                            "image": 3,
                            "pack": [
                                "7 days",
                                "14 days"
                            ],
                            "name": "Habbit Active",
                            "info": "Cookie Dough",
                            "price": "₹799",
                            "memberPrice": "₹759"
                        },
                        {
                            "image": 4,
                            "pack": [
                                "7 days",
                                "14 days"
                            ],
                            "name": "Habbit Active",
                            "info": "Double Chocolate",
                            "price": "₹799",
                            "memberPrice": "₹759"
                        },
                        {
                            "image": 5,
                            "pack": [
                                "7 days",
                                "14 days"
                            ],
                            "name": "Habbit Active",
                            "info": "Mega Mango",
                            "price": "₹799",
                            "memberPrice": "₹759"
                        },
                        {
                            "image": 6,
                            "pack": [
                                "7 days",
                                "14 days"
                            ],
                            "name": "Habbit Active",
                            "info": "Strawberry Feels",
                            "price": "₹799",
                            "memberPrice": "₹759"
                        },
                        {
                            "image": 7,
                            "pack": [
                                "7 days",
                                "14 days"
                            ],
                            "name": "Habbit Active",
                            "info": "Vintage Vanilla",
                            "price": "₹799",
                            "memberPrice": "₹759"
                        },
                        {
                            "image": 8,
                            "pack": [
                                "7 days"
                            ],
                            "name": "Habbit Active",
                            "info": "Variety Pack | 7 days",
                            "price": "₹799",
                            "memberPrice": "₹759"
                        }
                    ]
                },
                {
                    "title": "Habbit Green",
                    "description": "Grade – A Pea Protein. Made from hand-selected organic yellow peas, it is the creamiest, most flavourful vegan protein you can get your hands on. ",
                    "id": "Protein",
                    "list": [
                        {
                            "image": 1,
                            "pack": [
                                "7 days",
                                "14 days"
                            ],
                            "name": "Habbit Green",
                            "info": "Banana Drama",
                            "price": "₹899",
                            "memberPrice": "₹859"
                        },
                        {
                            "image": 2,
                            "pack": [
                                "7 days",
                                "14 days"
                            ],
                            "name": "Habbit Green",
                            "info": "Caffe Latte",
                            "price": "₹899",
                            "memberPrice": "₹859"
                        },
                        {
                            "image": 3,
                            "pack": [
                                "7 days",
                                "14 days"
                            ],
                            "name": "Habbit Green",
                            "info": "Cookie Dough",
                            "price": "₹899",
                            "memberPrice": "₹859"
                        },
                        {
                            "image": 4,
                            "pack": [
                                "7 days",
                                "14 days"
                            ],
                            "name": "Habbit Green",
                            "info": "Double Chocolate",
                            "price": "₹899",
                            "memberPrice": "₹859"
                        },
                        {
                            "image": 5,
                            "pack": [
                                "7 days",
                                "14 days"
                            ],
                            "name": "Habbit Green",
                            "info": "Mega Mango",
                            "price": "₹899",
                            "memberPrice": "₹859"
                        },
                        {
                            "image": 6,
                            "pack": [
                                "7 days",
                                "14 days"
                            ],
                            "name": "Habbit Green",
                            "info": "Strawberry Feels",
                            "price": "₹899",
                            "memberPrice": "₹859"
                        },
                        {
                            "image": 7,
                            "pack": [
                                "7 days",
                                "14 days"
                            ],
                            "name": "Habbit Green",
                            "info": "Vintage Vanilla",
                            "price": "₹899",
                            "memberPrice": "₹859"
                        },
                        {
                            "image": 8,
                            "pack": [
                                "7 days"
                            ],
                            "name": "Habbit Green",
                            "info": "Variety Pack | 7 days",
                            "price": "₹899",
                            "memberPrice": "₹859"
                        }
                    ]
                }
            ]
        },
        {
            "id": "staples",
            "products": [
                {
                    "title": "Habbit Nude",
                    "description": "No thickeners, no emulsifiers, no flavours or sugar. As pure as protein can get, Habbit Nude is our most versatile protein.",
                    "id": "Protein",
                    "list": [
                        {
                            "image": 1,
                            "pack": [
                                "450g"
                            ],
                            "name": "Habbit Nude",
                            "info": "Pea Protein Isolate",
                            "price": "₹1,699",
                            "memberPrice": "₹1,659"
                        },
                        {
                            "image": 2,
                            "pack": [
                                "450g"
                            ],
                            "name": "Habbit Nude",
                            "info": "Whey Protein Isolate",
                            "price": "₹1,899",
                            "memberPrice": "₹1,859"
                        }
                    ]
                },
                {
                    "title": "Habbit Accessories",
                    "description": "Made with non-toxic materials and a lid designed to prevent splashing, The Omniflask is perfect for transit of all types.",
                    "list": [
                        {
                            "image": 1,
                            "name": "Omniflask",
                            "info": "All-purpose tumbler.",
                            "price": "₹2,999",
                            "memberPrice": "₹2,959"
                        }
                    ]
                }
            ]
        },
        {
            "id": "combo-boxes",
            "products": [
                {
                    "title": "Combo box",
                    "description": "Sets with your favorite products from Habbit.",
                    "list": [
                        {
                            "image": 1,
                            "name": "Super Shake Box",
                            "info": "2 Packs + Omniflask",
                            "price": "₹3,999",
                            "memberPrice": "₹3,959"
                        },
                        {
                            "image": 2,
                            "name": "Apex Box",
                            "info": "60 Days + Omniflask",
                            "price": "₹8,399",
                            "memberPrice": "₹8,359"
                        },
                        {
                            "image": 3,
                            "name": "Active Box",
                            "info": "60 Days + Omniflask",
                            "price": "₹7,099",
                            "memberPrice": "₹7,059"
                        },
                        {
                            "image": 4,
                            "name": "Green Box",
                            "info": "60 Days + Omniflask",
                            "price": "₹7,799",
                            "memberPrice": "₹7,759"
                        }
                    ]
                }
            ]
        }
    ],
    "paymentMethods": [
        {
            "icon": {
                "name": "amex",
                "width": 38,
                "height": 10
            },
            "name": "American Express"
        },
        {
            "icon": {
                "name": "google-pay",
                "width": 30,
                "height": 12
            },
            "name": "Google Pay"
        },
        {
            "icon": {
                "name": "master-card",
                "width": 22,
                "height": 14
            },
            "name": "Mastercard"
        },
        {
            "icon": {
                "name": "visa",
                "width": 34,
                "height": 10
            },
            "name": "Visa"
        },
        {
            "icon": {
                "name": "rupay",
                "width": 38,
                "height": 10
            },
            "name": "RuPay"
        },
        {
            "icon": {
                "name": "paytm",
                "width": 32,
                "height": 10
            },
            "name": "Paytm"
        },
        {
            "icon": {
                "name": "airtel-money",
                "width": 14,
                "height": 14
            },
            "name": "Airtel Money"
        },
        {
            "icon": {
                "name": "freecharge",
                "width": 14,
                "height": 14
            },
            "name": "Freecharge"
        },
        {
            "icon": {
                "name": "mobikwik",
                "width": 19,
                "height": 14
            },
            "name": "MobiKwik"
        },
        {
            "icon": {
                "name": "ola-money",
                "width": 14,
                "height": 14
            },
            "name": "OlaMoney"
        },
        {
            "icon": {
                "name": "payzapp",
                "width": 14,
                "height": 14
            },
            "name": "PayZapp"
        }
    ],
    "reviews": [
        {
            "author": "Ankit Kothari",
            "info": "Verified Purchase",
            "date": "2 days ago",
            "title": "It’s so tasty!",
            "text": "Okay, so I tried the Apex protein powder. And it’s so tasty! And it dissolves very quickly in water! <br>I got a surprise gift in the box as well: a shaker! Very well built! Such interesting and tasty flavours..."
        },
        {
            "author": "Swapnil Sharma",
            "info": "Verified Purchase",
            "date": "4 days ago",
            "title": "Tested good and keep energy",
            "text": "Extremely gratifying to have this every evening. Tastes good and keeps my energy levels high even at the end of the day.",
            "images": 9
        },
        {
            "author": "Ayushi Jalan",
            "info": "Verified Purchase",
            "date": "1 week ago",
            "title": "Tasted amazing and low calories!",
            "text": "The ice cream tastes amazing. Considering it’s only 50 calories, with no added sugar - the texture and the taste was something I didn’t expect. Never thought I’ll actually like the Green Tea flavour...",
            "images": 2
        },
        {
            "author": "Ankit Kothari",
            "info": "Verified Purchase",
            "date": "2 month ago",
            "title": "It’s so tasty!",
            "text": "Okay, so I tried the Apex protein powder. And it’s so tasty! And it dissolves very quickly in water! <br>I got a surprise gift in the box as well: a shaker! Very well built! Such interesting and tasty flavours..."
        },
        {
            "author": "Swapnil Sharma",
            "info": "Verified Purchase",
            "date": "1 year ago",
            "title": "Tested good and keep energy",
            "text": "Extremely gratifying to have this every evening. Tastes good and keeps my energy levels high even at the end of the day.",
            "images": 2
        },
        {
            "author": "Ayushi Jalan",
            "info": "Verified Purchase",
            "date": "12.03.2019",
            "title": "Tasted amazing and low calories!",
            "text": "The ice cream tastes amazing. Considering it’s only 50 calories, with no added sugar - the texture and the taste was something I didn’t expect. Never thought I’ll actually like the Green Tea flavour..."
        }
    ],
    "faq": [
        {
            "title": "What is Habbit Wise Cream?",
            "text": "<p>Habbit Wise Cream is a true wonder of nutritional science. Super low in calories, they compromise neither on taste nor texture. They contain less than 50 calories per serving. With no added sugar, low fat and no sweetener, we guarantee you the same taste, same texture and same delightful and indulgent experience</p>"
        },
        {
            "title": "Is it frosen desert?",
            "text": "<p>Habbit Wise Cream is a true wonder of nutritional science. Super low in calories, they compromise neither on taste nor texture. They contain less than 50 calories per serving. With no added sugar, low fat and no sweetener, we guarantee you the same taste, same texture and same delightful and indulgent experience</p>"
        },
        {
            "title": "What ingredients do you use?",
            "text": "<p>Habbit Wise Cream is a true wonder of nutritional science. Super low in calories, they compromise neither on taste nor texture. They contain less than 50 calories per serving. With no added sugar, low fat and no sweetener, we guarantee you the same taste, same texture and same delightful and indulgent experience</p>"
        },
        {
            "title": "It is vegan?",
            "text": "<p>Habbit Wise Cream is a true wonder of nutritional science. Super low in calories, they compromise neither on taste nor texture. They contain less than 50 calories per serving. With no added sugar, low fat and no sweetener, we guarantee you the same taste, same texture and same delightful and indulgent experience</p>"
        },
        {
            "title": "It is lactose-free?",
            "text": "<p>Habbit Wise Cream is a true wonder of nutritional science. Super low in calories, they compromise neither on taste nor texture. They contain less than 50 calories per serving. With no added sugar, low fat and no sweetener, we guarantee you the same taste, same texture and same delightful and indulgent experience</p>"
        }
    ],
    "product": [
        {
            "id": 1,
            "title": "Wise Cream",
            "description": "The lowest calorie ice creams in the world. Impossibly creamy, rich and tasty and available in 6 delicious flavours.",
            "price": "₹799",
            "memberPrice": "₹759",
            "volume": [
                "6 cups x 125ml",
                "2 pints x 500ml"
            ],
            "flavour": [
                {
                    "name": "Variety Pack",
                    "image": 1
                },
                {
                    "name": "Double Chocolate",
                    "image": 2
                },
                {
                    "name": "Lychee Blush",
                    "image": 3
                },
                {
                    "name": "Matcha Green Tea",
                    "image": 4
                },
                {
                    "name": "Blueberry Crumble",
                    "image": 5
                },
                {
                    "name": "Salted Caramel",
                    "image": 3
                },
                {
                    "name": "Vintage Vanilla",
                    "image": 3
                }
            ],
            "aboutText": "If you love ice cream as much as we do, and want to eat more, we got you. Wise Creams are creamy and delicious, and with less than 40 calories per serve, you can go in for seconds, even thirds!",
            "features": [
                {
                    "icon": "sugar",
                    "text": "No Added <br>Sugar"
                },
                {
                    "icon": "milk",
                    "text": "Made <br>from Milk"
                },
                {
                    "icon": "diet",
                    "text": "Keto + Diabetic<br>Friendly"
                },
                {
                    "icon": "nutrition",
                    "text": "Fiber<br>Rich"
                }
            ],
            "ingridientsText": "Water, Milk Solids, Dairy Fat, Dietary Fiber, Natural Emulsifiers and Stabilizing Blends, Stevia",
            "details": [
                {
                    "label": "Energy (kcal)",
                    "data": "29.65"
                },
                {
                    "label": "Protdein (g)",
                    "data": "1.49"
                },
                {
                    "label": "Carbs (g)",
                    "data": "1.98"
                },
                {
                    "label": "Added sugar (g)",
                    "data": "0.00"
                },
                {
                    "label": "Fat (g)",
                    "data": "0.91"
                },
                {
                    "label": "Dietary fibers (g)",
                    "data": "3.79"
                }
            ],
            "usageText": "You can eat ice cream regardless of the time of day or exercise.",
            "delivery": [
                {
                    "icon": "delivery",
                    "text": "Wise Cream orders before 2 PM typically get shipped and delivered the same day. Orders after 2PM get delivered the next day."
                },
                {
                    "icon": "marker",
                    "text": "Wise Creams are only available in Delhi-NCR, Mumbai, and Bengaluru. <br><a href=\"#modal-check-code\" class=\"link-inherit link-underline\" data-element=\"modal-trigger\">Check availability in your Pin Code</a>."
                },
                {
                    "icon": "frost",
                    "text": "Wise Creams are delivered in special temperature-controlled packaging with dry ice. In case your order has other Habbit products too, they will be delivered separately."
                }
            ]
        },
        {
            "id": 2,
            "title": "Super Shake",
            "description": "The all-in-one daily shake for the family. Grade-A protein blended with essential fibers, healthy fats, vitamins &amp; minerals for a super start to the day.",
            "price": "₹999",
            "memberPrice": "₹959",
            "volume": [
                "400g"
            ],
            "flavour": [
                {
                    "name": "Double Chocolate",
                    "image": 1
                },
                {
                    "name": "Vintage Vanilla",
                    "image": 2
                }
            ],
            "aboutText": "The Super Shake is a nutrient dense premix you can add to milk or water to make a tasty smoothie for yourself. One Scoop of the Habbit Super Shake contains essential fibers, proteins, healthy omega, vitamins & minerals.",
            "features": [
                {
                    "icon": "mix",
                    "text": "Complete <br>Nutrient Mix"
                },
                {
                    "icon": "scale",
                    "text": "Scale <br>Friendly"
                },
                {
                    "icon": "body",
                    "text": "Full Body <br>Wellness"
                }
            ],
            "ingridientsText": "Water, Milk Solids, Dairy Fat, Dietary Fiber, Natural Emulsifiers and Stabilizing Blends, Stevia",
            "details": [
                {
                    "label": "Energy (kcal)",
                    "data": "29.65"
                },
                {
                    "label": "Protdein (g)",
                    "data": "1.49"
                },
                {
                    "label": "Carbs (g)",
                    "data": "1.98"
                },
                {
                    "label": "Added sugar (g)",
                    "data": "0.00"
                },
                {
                    "label": "Fat (g)",
                    "data": "0.91"
                },
                {
                    "label": "Dietary fibers (g)",
                    "data": "3.79"
                }
            ],
            "usage": [
                {
                    "icon": "spoon-powder",
                    "text": "Take 2 spoons (20g) of Super Shake powder"
                },
                {
                    "icon": "milk-2",
                    "text": "Add it to 1 glass (250ml) milk or plant milk/nut milk/ water"
                },
                {
                    "icon": "shaker",
                    "text": "Stir or shake well to dissolve"
                },
                {
                    "icon": "super-shake",
                    "text": "Enjoy chilled or at room temperature"
                }
            ],
            "combo": [
                {
                    "image": 1,
                    "title": "2 packs Super Shake"
                },
                {
                    "image": 2,
                    "title": "Omniflask"
                }
            ]
        }
    ],
    "comparison": {
        "thead": [
            "Habbit Health",
            "Most traditional ice cream"
        ],
        "tbody": [
            {
                "us": "30 Calories",
                "them": "120 Calories"
            },
            {
                "us": "1.5 Carbs",
                "them": "1.5 Carbs"
            },
            {
                "us": "0.9 Fat",
                "them": "0.9 Fat"
            },
            {
                "us": "0.0 Sugar",
                "them": "127 Sugar"
            }
        ]
    },
    "cart": [
        {
            "image": 1,
            "title": "Wise Cream",
            "flavour": "Double Chocolate",
            "volume": "6 x 125ml",
            "amount": 2,
            "price": "₹799",
            "memberPrice": "₹759"
        },
        {
            "image": 1,
            "title": "Wise Cream",
            "flavour": "Double Chocolate",
            "volume": "2 x 500ml",
            "amount": 1,
            "price": "₹899",
            "memberPrice": "₹859"
        }
    ],
    "checkout": {
        "addresses": [
            {
                "title": "Home",
                "name": "Nick Smith",
                "phone": "+91 000 000 00 00",
                "address": "Street 25-4, Bihar Sharif, Bihar, India",
                "pincode": 456665
            },
            {
                "title": "Dad John",
                "name": "John Smith",
                "phone": "+91 111 111 11 11",
                "address": "Street 14-5, Bihar Sharif, Bihar, India",
                "pincode": 456665
            },
            {
                "title": "Sister Mary",
                "name": "Mary Smith",
                "phone": "+91 222 222 22 22",
                "address": "Street 17-5, Bihar Sharif, Bihar, India",
                "pincode": 456665
            }
        ],
        "states": [
            "Andhra Pradesh",
            "Arunachal",
            "Assam",
            "Bihar",
            "Chhattisgarh",
            "Goa",
            "Gujarat",
            "Haryana",
            "Himachal Pradesh",
            "Jharkhand",
            "Karnataka",
            "Kerala",
            "Madhya Pradesh",
            "Maharashtra",
            "Manipur",
            "Meghalaya",
            "Mizoram",
            "Nagaland",
            "Odisha",
            "Punjab",
            "Rajasthan ",
            "Sikkim",
            "Tamil Nadu",
            "Telangana",
            "Tripura",
            "Uttar Pradesh",
            "Uttarakhand",
            "West Bengal"
        ],
        "cities": [
            "Ara",
            "Baruni",
            "Begusarai",
            "Bettiah",
            "Bhagalpur",
            "Bihar Sharif",
            "Bodh Gaya",
            "Buxar",
            "Chapra",
            "Darbhanga",
            "Dehri",
            "Dinapur Nizamat",
            "Gaya",
            "Hajipur",
            "Jamalpur",
            "Katihar",
            "Madhubani",
            "Motihari",
            "Munger",
            "Muzaffarpur",
            "Patna",
            "Purnia",
            "Pusa",
            "Saharsa",
            "Samastipur",
            "Sasaram",
            "Sitamarhi",
            "Siwan"
        ]
    }
}